Take-Home Exercise 3.0: Prototyping Modules for Visual Analytics Shiny Application – ISSS608 Coursework
…
climate_windspeed_filtered <- climate_windspeed %>%
  filter(!station %in% c("S07", "S08", "S112", "S113", "S114", "S119", "S123", 
                         "S29", "S33", "S35", "S40", "S64", "S66", "S69", "S71", 
                         "S77", "S78", "S79", "S81", "S84", "S88", "S89", "S90", 
                         "S92", "S94", "S80", "S23", "S50", "S43", "S117", "S108", 
                         "S60", "S06"))

2.3.2 Ensuring Date

climate_rainfall_filtered %>%
  group_by(station) %>%
  summarise(min_date = min(date), max_date = max(date), total_days = n())

# A tibble: 41 × 4
   station min_date   max_date   total_days
   <chr>   <date>     <date>          <int>
 1 S06     2020-04-01 2024-12-31       1675
 2 S07     2020-04-01 2024-12-31       1736
 3 S08     2020-04-01 2024-12-31       1736
 4 S104    2020-04-01 2024-12-31       1736
 5 S106    2020-04-01 2024-12-31       1736
 6 S107    2020-04-01 2024-12-31       1736
 7 S108    2020-04-01 2022-08-31        883
 8 S109    2020-04-01 2024-12-31       1736
 9 S111    2020-04-01 2024-12-31       1736
10 S112    2020-04-01 2024-12-31       1736
# ℹ 31 more rows
…
